{
    "KPlugin": {
        "Authors": [
            {
                "Name": "Aleix Pol",
                "Name[ar]": "Aleix Pol",
                "Name[az]": "Aleix Pol",
                "Name[ca@valencia]": "Aleix Pol",
                "Name[ca]": "Aleix Pol",
                "Name[cs]": "Aleix Pol",
                "Name[da]": "Aleix Pol",
                "Name[de]": "Aleix Pol",
                "Name[el]": "Aleix Pol",
                "Name[en_GB]": "Aleix Pol",
                "Name[es]": "Aleix Pol",
                "Name[et]": "Aleix Pol",
                "Name[eu]": "Aleix Pol",
                "Name[fi]": "Aleix Pol",
                "Name[fr]": "Aleix Pol",
                "Name[gl]": "Aleix Pol",
                "Name[hu]": "Aleix Pol",
                "Name[ia]": "Aleix Pol",
                "Name[id]": "Aleix Pol",
                "Name[it]": "Aleix Pol",
                "Name[ko]": "Aleix Pol",
                "Name[lt]": "Aleix Pol",
                "Name[nl]": "Aleix Pol",
                "Name[nn]": "Aleix Pol",
                "Name[pl]": "Aleix Pol",
                "Name[pt]": "Aleix Pol",
                "Name[pt_BR]": "Aleix Pol",
                "Name[ru]": "Aleix Pol",
                "Name[sk]": "Aleix Pol",
                "Name[sl]": "Aleix Pol",
                "Name[sv]": "Aleix Pol",
                "Name[tg]": "Алекс Пол (Aleix Pol)",
                "Name[tr]": "Aleix Pol",
                "Name[uk]": "Aleix Pol",
                "Name[x-test]": "xxAleix Polxx",
                "Name[zh_CN]": "Aleix Pol",
                "Name[zh_TW]": "Aleix Pol"
            }
        ],
        "Category": "Utilities",
        "Description": "Saves the share into the chosen location.",
        "Description[ar]": "احفظ ما تريد مشاركته في مكان من اختيارك.",
        "Description[az]": "Paylaşımı seçilmiş yer daxilində saxlayın.",
        "Description[ca@valencia]": "Guarda la compartició a la ubicació escollida.",
        "Description[ca]": "Desa la compartició a la ubicació escollida.",
        "Description[cs]": "Uloží sdílenou položku na vybrané místo.",
        "Description[da]": "Gemmer delingen til det valgte sted.",
        "Description[de]": "Speichert die Freigabe am ausgewählten Ort.",
        "Description[el]": "Αποθήκευση του διαμοιρασμένου στην επιλεγμένη τοποθεσία.",
        "Description[en_GB]": "Saves the share into the chosen location.",
        "Description[es]": "Guarda el recurso compartido en la ubicación elegida.",
        "Description[et]": "Jagatu salvestamine määratud asukohta.",
        "Description[eu]": "Partekatua hautatutako kokapenean gordetzen du.",
        "Description[fi]": "Tallentaa jaettavan asian valittuun sijaintiin.",
        "Description[fr]": "Enregistre le partage à l'emplacement choisi.",
        "Description[gl]": "Garda a compartición no lugar escollido.",
        "Description[hu]": "Megosztás mentése a kiválasztott helyre.",
        "Description[id]": "Menyimpankan si berbagi ke dalam lokasi yang dipilih.",
        "Description[it]": "Salva la condivisione nella posizione scelta.",
        "Description[ko]": "공유한 항목을 지정한 위치에 저장합니다.",
        "Description[lt]": "Įrašo viešinį į pasirinktą vietą.",
        "Description[nl]": "Slaat de share op in de gekozen locatie.",
        "Description[nn]": "Lagra til valt plassering.",
        "Description[pl]": "Zapisuje plik udostępniony w wybranym miejscu.",
        "Description[pt]": "Grava a partilha na localização indicada.",
        "Description[pt_BR]": "Salva o compartilhamento na localização indicada.",
        "Description[ru]": "Сохраняет общий файл в указанное расположение.",
        "Description[sk]": "Uloží zdieľanie do vybraného umiestnenia.",
        "Description[sl]": "Shrani deljene datoteke na izbrano mesto.",
        "Description[sv]": "Sparar delade objekt på vald plats.",
        "Description[tg]": "Мубодиларо ба макони интихобшуда нигоҳ медорад.",
        "Description[tr]": "Paylaşımı seçilen konuma kaydeder.",
        "Description[uk]": "Зберігає спільний ресурс до вказаного каталогу.",
        "Description[x-test]": "xxSaves the share into the chosen location.xx",
        "Description[zh_CN]": "将共享保存到所选位置。",
        "Description[zh_TW]": "儲存分享到選定的位置。",
        "Icon": "document-save",
        "License": "GPL",
        "Name": "Save as",
        "Name[az]": "Faylda saxlamaq",
        "Name[ca]": "Desa com a",
        "Name[cs]": "Uložit jako",
        "Name[da]": "Gem som",
        "Name[de]": "Speichern unter",
        "Name[en_GB]": "Save as",
        "Name[es]": "Guardar como",
        "Name[et]": "Salvestamine kui",
        "Name[eu]": "Gorde honela",
        "Name[fi]": "Tallenna nimellä…",
        "Name[fr]": "Enregistrer sous",
        "Name[gl]": "Gardar como",
        "Name[ia]": "Salveguarda como",
        "Name[id]": "Simpan sebagai",
        "Name[it]": "Salva come",
        "Name[ko]": "다른 이름으로 저장",
        "Name[lt]": "Įrašyti kaip",
        "Name[ml]": "പേരുമാറ്റി സൂക്ഷിക്കുക",
        "Name[nl]": "Opslaan als",
        "Name[nn]": "Lagra som",
        "Name[pl]": "Zapisz jako",
        "Name[pt]": "Gravar como",
        "Name[pt_BR]": "Salvar como",
        "Name[ru]": "Сохранение в файл",
        "Name[sk]": "Uložiť ako",
        "Name[sl]": "Shrani kot",
        "Name[sv]": "Spara som",
        "Name[tg]": "Нигоҳ доштани ҳамчун",
        "Name[uk]": "Зберегти як",
        "Name[x-test]": "xxSave asxx",
        "Name[zh_CN]": "另存为",
        "Name[zh_TW]": "另存新檔",
        "X-Purpose-ActionDisplay": "Save as...",
        "X-Purpose-ActionDisplay[az]": "Belə saxla...",
        "X-Purpose-ActionDisplay[ca]": "Desa com a...",
        "X-Purpose-ActionDisplay[cs]": "Uložit jako...",
        "X-Purpose-ActionDisplay[da]": "Gem som...",
        "X-Purpose-ActionDisplay[de]": "Speichern unter ...",
        "X-Purpose-ActionDisplay[en_GB]": "Save as...",
        "X-Purpose-ActionDisplay[es]": "Guardar como...",
        "X-Purpose-ActionDisplay[et]": "Salvesta kui ...",
        "X-Purpose-ActionDisplay[eu]": "Gorde honela...",
        "X-Purpose-ActionDisplay[fi]": "Tallenna nimellä…",
        "X-Purpose-ActionDisplay[fr]": "Enregistrer sous...",
        "X-Purpose-ActionDisplay[gl]": "Gardar como…",
        "X-Purpose-ActionDisplay[ia]": "Salveguarda como ...",
        "X-Purpose-ActionDisplay[id]": "Simpan sebagai...",
        "X-Purpose-ActionDisplay[it]": "Salva come...",
        "X-Purpose-ActionDisplay[ko]": "다른 이름으로 저장...",
        "X-Purpose-ActionDisplay[lt]": "Įrašyti kaip...",
        "X-Purpose-ActionDisplay[ml]": "പേരുമാറ്റി സൂക്ഷിക്കുക...",
        "X-Purpose-ActionDisplay[nl]": "Opslaan als...",
        "X-Purpose-ActionDisplay[nn]": "Lagra som …",
        "X-Purpose-ActionDisplay[pl]": "Zapisz jako...",
        "X-Purpose-ActionDisplay[pt]": "Gravar como...",
        "X-Purpose-ActionDisplay[pt_BR]": "Salvar como...",
        "X-Purpose-ActionDisplay[ru]": "Сохранить в файл...",
        "X-Purpose-ActionDisplay[sk]": "Uložiť ako...",
        "X-Purpose-ActionDisplay[sl]": "Shrani kot...",
        "X-Purpose-ActionDisplay[sv]": "Spara som...",
        "X-Purpose-ActionDisplay[tg]": "Нигоҳ доштани ҳамчун...",
        "X-Purpose-ActionDisplay[uk]": "Зберегти як…",
        "X-Purpose-ActionDisplay[x-test]": "xxSave as...xx",
        "X-Purpose-ActionDisplay[zh_CN]": "另存为...",
        "X-Purpose-ActionDisplay[zh_TW]": "另存為…"
    },
    "X-Purpose-Configuration": [
        "destinationPath"
    ],
    "X-Purpose-Constraints": [],
    "X-Purpose-PluginTypes": [
        "Export"
    ]
}
