{
    "KPlugin": {
        "Icon": "document-share",
        "Name": "Share...",
        "Name[az]": "Paylaş...",
        "Name[ca@valencia]": "Comparteix...",
        "Name[ca]": "Comparteix...",
        "Name[cs]": "Sdílet...",
        "Name[da]": "Del...",
        "Name[de]": "Teilen ...",
        "Name[en_GB]": "Share...",
        "Name[es]": "Compartir...",
        "Name[et]": "Jagamine ...",
        "Name[eu]": "Partekatu...",
        "Name[fi]": "Jaa…",
        "Name[fr]": "Partager…",
        "Name[gl]": "Compartir…",
        "Name[ia]": "Compartir...",
        "Name[id]": "Bagikan...",
        "Name[it]": "Condividi...",
        "Name[ko]": "공유...",
        "Name[lt]": "Bendrinti...",
        "Name[ml]": "പങ്കുവയ്ക്കുക...",
        "Name[nl]": "Delen...",
        "Name[nn]": "Del …",
        "Name[pl]": "Udostępnij...",
        "Name[pt]": "Partilhar...",
        "Name[pt_BR]": "Compartilhar...",
        "Name[ru]": "Опубликовать...",
        "Name[sk]": "Zdieľať...",
        "Name[sl]": "Deli z drugimi...",
        "Name[sv]": "Dela...",
        "Name[tg]": "Мубодила кардан...",
        "Name[uk]": "Оприлюднити…",
        "Name[x-test]": "xxShare...xx",
        "Name[zh_CN]": "分享...",
        "Name[zh_TW]": "分享…"
    },
    "X-Purpose-InboundArguments": [
        "urls",
        "title"
    ],
    "X-Purpose-OutboundArguments": []
}
